{
  "uid" : "3bd701331fbd1356",
  "name" : "test_05",
  "fullName" : "testcases.test_weather.Test_weather#test_05",
  "historyId" : "04bdebd4cda63fb0e230d98dbfff4f7f",
  "time" : {
    "start" : 1706839388327,
    "stop" : 1706839388479,
    "duration" : 152
  },
  "status" : "passed",
  "flaky" : false,
  "beforeStages" : [ {
    "name" : "_xunit_setup_class_fixture_Test_weather",
    "time" : {
      "start" : 1706839388326,
      "stop" : 1706839388326,
      "duration" : 0
    },
    "status" : "passed",
    "steps" : [ ],
    "attachments" : [ ],
    "parameters" : [ ],
    "hasContent" : false,
    "stepsCount" : 0,
    "attachmentsCount" : 0,
    "shouldDisplayMessage" : false
  } ],
  "testStage" : {
    "status" : "passed",
    "steps" : [ {
      "name" : "获取上海天气",
      "time" : {
        "start" : 1706839388327,
        "stop" : 1706839388479,
        "duration" : 152
      },
      "status" : "passed",
      "steps" : [ ],
      "attachments" : [ ],
      "parameters" : [ ],
      "hasContent" : false,
      "stepsCount" : 0,
      "attachmentsCount" : 0,
      "shouldDisplayMessage" : false
    } ],
    "attachments" : [ {
      "uid" : "58a67a26a5822186",
      "name" : "log",
      "source" : "58a67a26a5822186.txt",
      "type" : "text/plain",
      "size" : 242
    } ],
    "parameters" : [ ],
    "hasContent" : true,
    "stepsCount" : 1,
    "attachmentsCount" : 1,
    "shouldDisplayMessage" : false
  },
  "afterStages" : [ {
    "name" : "_xunit_setup_class_fixture_Test_weather::0",
    "time" : {
      "start" : 1706839388797,
      "stop" : 1706839388798,
      "duration" : 1
    },
    "status" : "passed",
    "steps" : [ ],
    "attachments" : [ ],
    "parameters" : [ ],
    "hasContent" : false,
    "stepsCount" : 0,
    "attachmentsCount" : 0,
    "shouldDisplayMessage" : false
  } ],
  "labels" : [ {
    "name" : "severity",
    "value" : "trivial"
  }, {
    "name" : "parentSuite",
    "value" : "testcases"
  }, {
    "name" : "suite",
    "value" : "test_weather"
  }, {
    "name" : "subSuite",
    "value" : "Test_weather"
  }, {
    "name" : "host",
    "value" : "QH20121401L"
  }, {
    "name" : "thread",
    "value" : "5420-MainThread"
  }, {
    "name" : "framework",
    "value" : "pytest"
  }, {
    "name" : "language",
    "value" : "cpython3"
  }, {
    "name" : "package",
    "value" : "testcases.test_weather"
  }, {
    "name" : "resultFormat",
    "value" : "allure2"
  } ],
  "parameters" : [ ],
  "links" : [ {
    "name" : "https://www.baidu.com",
    "url" : "https://www.baidu.com",
    "type" : "issue"
  } ],
  "hidden" : false,
  "retry" : false,
  "extra" : {
    "severity" : "trivial",
    "retries" : [ ],
    "categories" : [ ],
    "tags" : [ ]
  },
  "source" : "3bd701331fbd1356.json",
  "parameterValues" : [ ]
}